{
  "main.css": "static/css/main.c94c14fe.css",
  "main.css.map": "static/css/main.c94c14fe.css.map",
  "main.js": "static/js/main.0c9691e2.js",
  "main.js.map": "static/js/main.0c9691e2.js.map",
  "static/media/glyphicons-halflings-regular.eot": "static/media/glyphicons-halflings-regular.f4769f9b.eot",
  "static/media/glyphicons-halflings-regular.svg": "static/media/glyphicons-halflings-regular.89889688.svg",
  "static/media/glyphicons-halflings-regular.ttf": "static/media/glyphicons-halflings-regular.e18bbf61.ttf",
  "static/media/glyphicons-halflings-regular.woff": "static/media/glyphicons-halflings-regular.fa277232.woff",
  "static/media/glyphicons-halflings-regular.woff2": "static/media/glyphicons-halflings-regular.448c34a5.woff2"
}